{
  "collectionName": "components_default_credits",
  "info": {
    "name": "credit",
    "icon": "heart"
  },
  "options": {},
  "attributes": {
    "title": {
      "type": "string",
      "unique": true
    },
    "links": {
      "type": "component",
      "repeatable": true,
      "component": "default.social"
    }
  }
}
