{
  "collectionName": "components_default_faq",
  "info": {
    "name": "FAQ",
    "icon": "question",
    "description": ""
  },
  "options": {},
  "attributes": {
    "question": {
      "type": "string",
      "required": true
    },
    "answer": {
      "type": "text",
      "required": true
    },
    "link": {
      "type": "string"
    }
  }
}
